…
    names(depressive)

    ##  [1] "cid"   "race"  "sex"   "yob"   "dep_1" "dep_2" "dep_3" "dep_4" "dep_5"
    ## [10] "dep_6" "dep_7" "dep_8"

With the `select_tbl()` function, you can summarize these responses to
see how many respondents selected each answer option for every variable.

    select_tbl(data = depressive, var_stem = "dep")

    ## # A tibble: 24 × 4
    ##    variable values count percent
    ##    <chr>     <int> <int>   <dbl>
    ##  1 dep_1         1   109  0.0678
    ##  2 dep_1         2   689  0.429 
    ##  3 dep_1         3   809  0.503 
    ##  4 dep_2         1   144  0.0896
    ##  5 dep_2         2   746  0.464 
    ##  6 dep_2         3   717  0.446 
    ##  7 dep_3         1  1162  0.723 
    ##  8 dep_3         2   392  0.244 
    ##  9 dep_3         3    53  0.0330
    ## 10 dep_4         1   601  0.374 
    ## # ℹ 14 more rows
…
Set the `pivot` argument to `wider` to reshape the resulting table into
the wide format. By default, the summary table is presented in the long
format.

    # Default longer format
    select_tbl(data = depressive, 
               var_stem = "dep")

    ## # A tibble: 24 × 4
    ##    variable values count percent
    ##    <chr>     <int> <int>   <dbl>
    ##  1 dep_1         1   109  0.0678
    ##  2 dep_1         2   689  0.429 
    ##  3 dep_1         3   809  0.503 
    ##  4 dep_2         1   144  0.0896
    ##  5 dep_2         2   746  0.464 
    ##  6 dep_2         3   717  0.446 
    ##  7 dep_3         1  1162  0.723 
    ##  8 dep_3         2   392  0.244 
    ##  9 dep_3         3    53  0.0330
    ## 10 dep_4         1   601  0.374 
    ## # ℹ 14 more rows
…
    # longer format
    select_group_tbl(data = dep_recoded, 
                     var_stem = "dep",
                     group = "race",
                     pivot = "longer")

    ## # A tibble: 72 × 5
    ##    variable race                   values      count percent
    ##    <chr>    <chr>                  <fct>       <int>   <dbl>
    ##  1 dep_1    Black                  often          45  0.0280
    ##  2 dep_1    Black                  sometimes     194  0.121 
    ##  3 dep_1    Black                  hardly ever   248  0.154 
    ##  4 dep_1    Hispanic               often          28  0.0174
    ##  5 dep_1    Hispanic               sometimes     155  0.0965
    ##  6 dep_1    Hispanic               hardly ever   187  0.116 
    ##  7 dep_1    Non-Black/Non-Hispanic often          36  0.0224
    ##  8 dep_1    Non-Black/Non-Hispanic sometimes     340  0.212 
    ##  9 dep_1    Non-Black/Non-Hispanic hardly ever   374  0.233 
    ## 10 dep_2    Black                  often          49  0.0305
    ## # ℹ 62 more rows

    # wider format
    select_group_tbl(data = dep_recoded, 
                     var_stem = "dep",
                     group = "race",
                     pivot = "wider")

    ## # A tibble: 24 × 8
    ##    variable values   count_race_Black count_race_Hispanic count_race_Non-Black…¹
    ##    <chr>    <fct>               <int>               <int>                  <int>
    ##  1 dep_1    often                  45                  28                     36
    ##  2 dep_1    sometim…              194                 155                    340
    ##  3 dep_1    hardly …              248                 187                    374
    ##  4 dep_2    often                  49                  36                     59
    ##  5 dep_2    sometim…              204                 163                    379
    ##  6 dep_2    hardly …              234                 171                    312
    ##  7 dep_3    often                 330                 246                    586
    ##  8 dep_3    sometim…              138                 104                    150
    ##  9 dep_3    hardly …               19                  20                     14
    ## 10 dep_4    often                 183                 131                    287
    ## # ℹ 14 more rows
    ## # ℹ abbreviated name: ¹​`count_race_Non-Black/Non-Hispanic`
    ## # ℹ 3 more variables: percent_race_Black <dbl>, percent_race_Hispanic <dbl>,
    ## #   `percent_race_Non-Black/Non-Hispanic` <dbl>

As with `cat_group_tbl()`, you can define values to exclude and how to
handle missing data. When excluding values, use the `var_stem` argument
to specify which values to omit across variables sharing that stem.

    # Default listwise removal: 'often' value removed from all
    # dep_ variables, and 'Non-Black/Non-Hispanic' value removed
    # from race variable
    select_group_tbl(data = dep_recoded, 
                     var_stem = "dep",
                     group = "race",
                     pivot = "longer",
                     ignore = c(dep = "often", race = "Non-Black/Non-Hispanic"))

    ## # A tibble: 31 × 5
    ##    variable race     values count percent
    ##    <chr>    <chr>     <int> <int>   <dbl>
    ##  1 dep_1    Black         2    16   0.254
    ##  2 dep_1    Black         3    18   0.286
    ##  3 dep_1    Hispanic      2    20   0.317
    ##  4 dep_1    Hispanic      3     9   0.143
    ##  5 dep_2    Black         2    16   0.254
    ##  6 dep_2    Black         3    18   0.286
    ##  7 dep_2    Hispanic      2    16   0.254
    ##  8 dep_2    Hispanic      3    13   0.206
    ##  9 dep_3    Black         2    34   0.540
    ## 10 dep_3    Hispanic      2    21   0.333
    ## # ℹ 21 more rows

    # Pairwise removal: 'often' value removed from all
    # dep_ variables, and 'Non-Black/Non-Hispanic' value removed
    # from race variable
    select_group_tbl(data = dep_recoded, 
                     var_stem = "dep",
                     group = "race",
                     pivot = "longer",
                     ignore = c(dep = "often", race = "Non-Black/Non-Hispanic"),
                     na_removal = "pairwise")

    ## # A tibble: 32 × 5
    ##    variable race     values count percent
    ##    <chr>    <chr>     <int> <int>   <dbl>
    ##  1 dep_1    Black         2   203  0.251 
    ##  2 dep_1    Black         3   256  0.317 
    ##  3 dep_1    Hispanic      2   159  0.197 
    ##  4 dep_1    Hispanic      3   190  0.235 
    ##  5 dep_2    Black         2   213  0.269 
    ##  6 dep_2    Black         3   241  0.305 
    ##  7 dep_2    Hispanic      2   165  0.209 
    ##  8 dep_2    Hispanic      3   172  0.217 
    ##  9 dep_3    Black         2   149  0.507 
    ## 10 dep_3    Black         3    20  0.0680
    ## # ℹ 22 more rows

Use a list if you want to exclude several values from the same
`var_stem` or `group` variable:

    select_group_tbl(data = dep_recoded, 
                     var_stem = "dep",
                     group = "race",
                     pivot = "longer",
                     ignore = list(race = c("Hispanic", "Non-Black/Non-Hispanic")))

    ## # A tibble: 24 × 5
    ##    variable race  values      count percent
    ##    <chr>    <chr> <fct>       <int>   <dbl>
    ##  1 dep_1    Black often          45  0.0924
    ##  2 dep_1    Black sometimes     194  0.398 
    ##  3 dep_1    Black hardly ever   248  0.509 
    ##  4 dep_2    Black often          49  0.101 
    ##  5 dep_2    Black sometimes     204  0.419 
    ##  6 dep_2    Black hardly ever   234  0.480 
    ##  7 dep_3    Black often         330  0.678 
    ##  8 dep_3    Black sometimes     138  0.283 
    ##  9 dep_3    Black hardly ever    19  0.0390
    ## 10 dep_4    Black often         183  0.376 
    ## # ℹ 14 more rows

When `group_type` is `variable` you can use the `margins` argument to
define how percentages are calculated and shown in the resulting table:

    # Default: percentages for each variable sum to one.
    select_group_tbl(data = dep_recoded, 
                     var_stem = "dep",
                     group = "race",
                     pivot = "longer",
                     only = "percent")

    ## # A tibble: 72 × 4
    ##    variable race                   values      percent
    ##    <chr>    <chr>                  <fct>         <dbl>
    ##  1 dep_1    Black                  often        0.0280
    ##  2 dep_1    Black                  sometimes    0.121 
    ##  3 dep_1    Black                  hardly ever  0.154 
    ##  4 dep_1    Hispanic               often        0.0174
    ##  5 dep_1    Hispanic               sometimes    0.0965
    ##  6 dep_1    Hispanic               hardly ever  0.116 
    ##  7 dep_1    Non-Black/Non-Hispanic often        0.0224
    ##  8 dep_1    Non-Black/Non-Hispanic sometimes    0.212 
    ##  9 dep_1    Non-Black/Non-Hispanic hardly ever  0.233 
    ## 10 dep_2    Black                  often        0.0305
    ## # ℹ 62 more rows

    # Rowwise: for each value of the variable, the percentages 
    # for all levels of the grouping variable sum to one
    select_group_tbl(data = dep_recoded, 
                     var_stem = "dep",
                     group = "race",
                     margins = "rows",
                     pivot = "longer",
                     only = "percent")

    ## # A tibble: 72 × 4
    ##    variable race                   values      percent
    ##    <chr>    <chr>                  <fct>         <dbl>
    ##  1 dep_1    Black                  often         0.413
    ##  2 dep_1    Hispanic               often         0.257
    ##  3 dep_1    Non-Black/Non-Hispanic often         0.330
    ##  4 dep_1    Black                  sometimes     0.282
    ##  5 dep_1    Hispanic               sometimes     0.225
    ##  6 dep_1    Non-Black/Non-Hispanic sometimes     0.493
    ##  7 dep_1    Black                  hardly ever   0.307
    ##  8 dep_1    Hispanic               hardly ever   0.231
    ##  9 dep_1    Non-Black/Non-Hispanic hardly ever   0.462
    ## 10 dep_2    Black                  often         0.340
    ## # ℹ 62 more rows

    # Columnwise: for each level of the grouping variable, 
    # the percentages for all values of the main variable 
    # sum to one
    select_group_tbl(data = dep_recoded, 
                     var_stem = "dep",
                     group = "race",
                     margins = "columns",
                     pivot = "longer",
                     only = "percent")

    ## # A tibble: 72 × 4
    ##    variable race                   values      percent
    ##    <chr>    <chr>                  <fct>         <dbl>
    ##  1 dep_1    Black                  often        0.0924
    ##  2 dep_1    Black                  sometimes    0.398 
    ##  3 dep_1    Black                  hardly ever  0.509 
    ##  4 dep_1    Hispanic               often        0.0757
    ##  5 dep_1    Hispanic               sometimes    0.419 
    ##  6 dep_1    Hispanic               hardly ever  0.505 
    ##  7 dep_1    Non-Black/Non-Hispanic often        0.048 
    ##  8 dep_1    Non-Black/Non-Hispanic sometimes    0.453 
    ##  9 dep_1    Non-Black/Non-Hispanic hardly ever  0.499 
    ## 10 dep_2    Black                  often        0.101 
    ## # ℹ 62 more rows
…
With the `mean_group_tbl()` function, you can produce a summary table
for a series of continuous variables sharing the same variable stem,
grouped either by another variable in your dataset or by matching a
pattern in the variable names.

For example, we often want to present summary statistics for responses
by demographic variables like region, gender, age, or race:

    mean_group_tbl(data = sdoh, 
                   var_stem = "HHC_PCT",
                   group = "REGION",
                   group_type = "variable")

    ## # A tibble: 24 × 7
    ##    variable                 REGION     mean    sd   min   max  nobs
    ##    <chr>                    <chr>     <dbl> <dbl> <dbl> <dbl> <int>
    ##  1 HHC_PCT_HHA_NURSING      Midwest    57.4  49.5     0   100  1055
    ##  2 HHC_PCT_HHA_NURSING      Northeast  74.2  43.9     0   100   217
    ##  3 HHC_PCT_HHA_NURSING      South      58.8  49.2     0   100  1422
    ##  4 HHC_PCT_HHA_NURSING      West       56    49.7     0   100   450
    ##  5 HHC_PCT_HHA_PHYS_THERAPY Midwest    55.2  48.9     0   100  1055
    ##  6 HHC_PCT_HHA_PHYS_THERAPY Northeast  68.0  43.1     0   100   217
    ##  7 HHC_PCT_HHA_PHYS_THERAPY South      58.4  49.0     0   100  1422
    ##  8 HHC_PCT_HHA_PHYS_THERAPY West       54.5  49.0     0   100   450
    ##  9 HHC_PCT_HHA_OCC_THERAPY  Midwest    52.9  48.7     0   100  1055
    ## 10 HHC_PCT_HHA_OCC_THERAPY  Northeast  64.8  42.8     0   100   217
    ## # ℹ 14 more rows
…
