Introduction to summarytabl • summarytabl
…
names(depressive)

##  [1] "cid"   "race"  "sex"   "yob"   "dep_1" "dep_2" "dep_3" "dep_4" "dep_5"
## [10] "dep_6" "dep_7" "dep_8"

Using the select_tbl() function, we can summarize
participants’ responses to these items by showing how many respondents
chose each answer option (i.e., value) for every variable.

select_tbl(data = depressive, var_stem = "dep")

## # A tibble: 24 × 4
##    variable values count percent
##    <chr>     <int> <int>   <dbl>
##  1 dep_1         1   109  0.0678
##  2 dep_1         2   689  0.429 
##  3 dep_1         3   809  0.503 
##  4 dep_2         1   144  0.0896
##  5 dep_2         2   746  0.464 
##  6 dep_2         3   717  0.446 
##  7 dep_3         1  1162  0.723 
##  8 dep_3         2   392  0.244 
##  9 dep_3         3    53  0.0330
## 10 dep_4         1   601  0.374 
## # ℹ 14 more rows
…
By default, missing values are removed using listwise deletion. To
switch to pairwise deletion instead, set
na_removal = "pairwise".

select_tbl(data = depressive, 
           var_stem = "dep",
           na_removal = "pairwise")

## # A tibble: 24 × 4
##    variable values count percent
##    <chr>     <int> <int>   <dbl>
##  1 dep_1         1   120  0.0726
##  2 dep_1         2   709  0.429 
##  3 dep_1         3   825  0.499 
##  4 dep_2         1   151  0.0920
##  5 dep_2         2   762  0.464 
##  6 dep_2         3   728  0.444 
##  7 dep_3         1  1192  0.721 
##  8 dep_3         2   406  0.246 
##  9 dep_3         3    55  0.0333
## 10 dep_4         1   611  0.371 
## # ℹ 14 more rows
…
Next, use the select_group_tbl() function to summarize
responses for all eight variables by race:

select_group_tbl(data = dep_recoded, 
                 var_stem = "dep",
                 group = "race")

## # A tibble: 72 × 5
##    variable race                   values      count percent
##    <chr>    <chr>                  <chr>       <int>   <dbl>
##  1 dep_1    Black                  hardly ever   248  0.154 
##  2 dep_1    Black                  often          45  0.0280
##  3 dep_1    Black                  sometimes     194  0.121 
##  4 dep_1    Hispanic               hardly ever   187  0.116 
##  5 dep_1    Hispanic               often          28  0.0174
##  6 dep_1    Hispanic               sometimes     155  0.0965
##  7 dep_1    Non-Black/Non-Hispanic hardly ever   374  0.233 
##  8 dep_1    Non-Black/Non-Hispanic often          36  0.0224
##  9 dep_1    Non-Black/Non-Hispanic sometimes     340  0.212 
## 10 dep_2    Black                  hardly ever   234  0.146 
## # ℹ 62 more rows

As with select_tbl(), setting the pivot argument to
"wider" reshapes the table into a wide format, while using
"pairwise" for the na_removal argument ensures
missing values are addressed through pairwise deletion.

select_group_tbl(data = dep_recoded, 
                 var_stem = "dep",
                 group = "race",
                 na_removal = "pairwise",
                 pivot = "wider")

## # A tibble: 24 × 8
##    variable values   count_race_Black count_race_Hispanic count_race_Non-Black…¹
##    <chr>    <chr>               <int>               <int>                  <int>
##  1 dep_1    hardly …              256                 190                    379
##  2 dep_1    often                  54                  28                     38
##  3 dep_1    sometim…              203                 159                    347
##  4 dep_2    hardly …              241                 172                    315
##  5 dep_2    often                  52                  38                     61
##  6 dep_2    sometim…              213                 165                    384
##  7 dep_3    hardly …               20                  20                     15
##  8 dep_3    often                 342                 252                    598
##  9 dep_3    sometim…              149                 105                    152
## 10 dep_4    hardly …               48                  40                     93
## # ℹ 14 more rows
## # ℹ abbreviated name: ¹​`count_race_Non-Black/Non-Hispanic`
## # ℹ 3 more variables: percent_race_Black <dbl>, percent_race_Hispanic <dbl>,
## #   `percent_race_Non-Black/Non-Hispanic` <dbl>
…
When group_type is set to variable (the
default), the margins argument controls how percentages are
calculated and presented.

# Default: percentages across each variable sum to one
select_group_tbl(data = dep_recoded, 
                 var_stem = "dep",
                 group = "race",
                 na_removal = "pairwise",
                 pivot = "wider")

## # A tibble: 24 × 8
##    variable values   count_race_Black count_race_Hispanic count_race_Non-Black…¹
##    <chr>    <chr>               <int>               <int>                  <int>
##  1 dep_1    hardly …              256                 190                    379
##  2 dep_1    often                  54                  28                     38
##  3 dep_1    sometim…              203                 159                    347
##  4 dep_2    hardly …              241                 172                    315
##  5 dep_2    often                  52                  38                     61
##  6 dep_2    sometim…              213                 165                    384
##  7 dep_3    hardly …               20                  20                     15
##  8 dep_3    often                 342                 252                    598
##  9 dep_3    sometim…              149                 105                    152
## 10 dep_4    hardly …               48                  40                     93
## # ℹ 14 more rows
## # ℹ abbreviated name: ¹​`count_race_Non-Black/Non-Hispanic`
## # ℹ 3 more variables: percent_race_Black <dbl>, percent_race_Hispanic <dbl>,
## #   `percent_race_Non-Black/Non-Hispanic` <dbl>

# Rowwise: for each value of the variable, the percentages 
# across all levels of the grouping variable sum to one
select_group_tbl(data = dep_recoded, 
                 var_stem = "dep",
                 group = "race",
                 margins = "rows",
                 na_removal = "pairwise",
                 pivot = "wider")

## # A tibble: 24 × 8
##    variable values   count_race_Black count_race_Hispanic count_race_Non-Black…¹
##    <chr>    <chr>               <int>               <int>                  <int>
##  1 dep_1    hardly …              256                 190                    379
##  2 dep_1    often                  54                  28                     38
##  3 dep_1    sometim…              203                 159                    347
##  4 dep_2    hardly …              241                 172                    315
##  5 dep_2    often                  52                  38                     61
##  6 dep_2    sometim…              213                 165                    384
##  7 dep_3    hardly …               20                  20                     15
##  8 dep_3    often                 342                 252                    598
##  9 dep_3    sometim…              149                 105                    152
## 10 dep_4    hardly …               48                  40                     93
## # ℹ 14 more rows
## # ℹ abbreviated name: ¹​`count_race_Non-Black/Non-Hispanic`
## # ℹ 3 more variables: percent_race_Black <dbl>, percent_race_Hispanic <dbl>,
## #   `percent_race_Non-Black/Non-Hispanic` <dbl>

# Columnwise: for each level of the grouping variable, 
# the percentages across all values of the variable sum 
# to one.
select_group_tbl(data = dep_recoded, 
                 var_stem = "dep",
                 group = "race",
                 margins = "columns",
                 na_removal = "pairwise",
                 pivot = "wider")

## # A tibble: 24 × 8
##    variable values   count_race_Black count_race_Hispanic count_race_Non-Black…¹
##    <chr>    <chr>               <int>               <int>                  <int>
##  1 dep_1    hardly …              256                 190                    379
##  2 dep_1    often                  54                  28                     38
##  3 dep_1    sometim…              203                 159                    347
##  4 dep_2    hardly …              241                 172                    315
##  5 dep_2    often                  52                  38                     61
##  6 dep_2    sometim…              213                 165                    384
##  7 dep_3    hardly …               20                  20                     15
##  8 dep_3    often                 342                 252                    598
##  9 dep_3    sometim…              149                 105                    152
## 10 dep_4    hardly …               48                  40                     93
## # ℹ 14 more rows
## # ℹ abbreviated name: ¹​`count_race_Non-Black/Non-Hispanic`
## # ℹ 3 more variables: percent_race_Black <dbl>, percent_race_Hispanic <dbl>,
## #   `percent_race_Non-Black/Non-Hispanic` <dbl>
…
mean_group_tbl(data = sdoh, 
               var_stem = "HHC_PCT",
               group = "REGION",
               group_type = "variable")

## # A tibble: 24 × 7
##    variable                 REGION     mean    sd   min   max  nobs
##    <chr>                    <chr>     <dbl> <dbl> <dbl> <dbl> <int>
##  1 HHC_PCT_HHA_NURSING      Midwest    57.4  49.5     0   100  1055
##  2 HHC_PCT_HHA_NURSING      Northeast  74.2  43.9     0   100   217
##  3 HHC_PCT_HHA_NURSING      South      58.8  49.2     0   100  1422
##  4 HHC_PCT_HHA_NURSING      West       56    49.7     0   100   450
##  5 HHC_PCT_HHA_PHYS_THERAPY Midwest    55.2  48.9     0   100  1055
##  6 HHC_PCT_HHA_PHYS_THERAPY Northeast  68.0  43.1     0   100   217
##  7 HHC_PCT_HHA_PHYS_THERAPY South      58.4  49.0     0   100  1422
##  8 HHC_PCT_HHA_PHYS_THERAPY West       54.5  49.0     0   100   450
##  9 HHC_PCT_HHA_OCC_THERAPY  Midwest    52.9  48.7     0   100  1055
## 10 HHC_PCT_HHA_OCC_THERAPY  Northeast  64.8  42.8     0   100   217
## # ℹ 14 more rows
…
