Summarize multiple response variables by group or pattern — select_group_tbl • summarytabl
…
                 group = "sex",
                 group_type = "variable",
                 na_removal = "listwise",
                 pivot = "wider",
                 only = "percent",
                 var_labels =
                   c("dep_1" = "how often child feels sad and blue",
                     "dep_2" = "how often child feels nervous, tense, or on edge",
                     "dep_3" = "how often child feels happy",
                     "dep_4" = "how often child feels bored",
                     "dep_5" = "how often child feels lonely",
                     "dep_6" = "how often child feels tired or worn out",
                     "dep_7" = "how often child feels excited about something",
                     "dep_8" = "how often child feels too busy to get everything"))
#> # A tibble: 24 × 5
#>    variable variable_label            values percent_sex_female percent_sex_male
#>    <chr>    <chr>                     <chr>               <dbl>            <dbl>
#>  1 dep_1    how often child feels sa… hardly             0.230            0.274 
#>  2 dep_1    how often child feels sa… often              0.0336           0.0342
#>  3 dep_1    how often child feels sa… somet…             0.227            0.202 
#>  4 dep_2    how often child feels ne… hardly             0.217            0.229 
#>  5 dep_2    how often child feels ne… often              0.0386           0.0510
#>  6 dep_2    how often child feels ne… somet…             0.234            0.230 
#>  7 dep_3    how often child feels ha… hardly             0.0156           0.0174
#>  8 dep_3    how often child feels ha… often              0.368            0.355 
#>  9 dep_3    how often child feels ha… somet…             0.106            0.138 
#> 10 dep_4    how often child feels bo… hardly             0.0473           0.0585
#> # ℹ 14 more rows
…
