Summarize multiple response variables — select_tbl • summarytabl
…
select_tbl(data = depressive,
           var_stem = "dep",
           na_removal = "pairwise",
           pivot = "longer",
           var_labels = var_label_example)
#> # A tibble: 24 × 5
#>    variable variable_label                                  values count percent
#>    <chr>    <chr>                                            <int> <int>   <dbl>
#>  1 dep_1    how often child feels sad and blue                   1   120  0.0726
#>  2 dep_1    how often child feels sad and blue                   2   709  0.429 
#>  3 dep_1    how often child feels sad and blue                   3   825  0.499 
#>  4 dep_2    how often child feels nervous, tense, or on ed…      1   151  0.0920
#>  5 dep_2    how often child feels nervous, tense, or on ed…      2   762  0.464 
#>  6 dep_2    how often child feels nervous, tense, or on ed…      3   728  0.444 
#>  7 dep_3    how often child feels happy                          1  1192  0.721 
#>  8 dep_3    how often child feels happy                          2   406  0.246 
#>  9 dep_3    how often child feels happy                          3    55  0.0333
#> 10 dep_4    how often child feels bored                          1   611  0.371 
#> # ℹ 14 more rows
…
